com\cafeconpalito\psp_tema2_ejercicio6_relevos\PSP_Tema2_Ejercicio6_Relevos.class
com\cafeconpalito\psp_tema2_ejercicio6_relevos\Relevos.class
com\cafeconpalito\psp_tema2_ejercicio6_relevos\Corredor.class
